<?xml version="1.0" encoding="UTF-8" standalone="no"?>
<svg
   xmlns:dc="http://purl.org/dc/elements/1.1/"
   xmlns:cc="http://creativecommons.org/ns#"
   xmlns:rdf="http://www.w3.org/1999/02/22-rdf-syntax-ns#"
   xmlns:svg="http://www.w3.org/2000/svg"
   xmlns="http://www.w3.org/2000/svg"
   xmlns:xlink="http://www.w3.org/1999/xlink"
   xmlns:sodipodi="http://sodipodi.sourceforge.net/DTD/sodipodi-0.dtd"
   xmlns:inkscape="http://www.inkscape.org/namespaces/inkscape"
   sodipodi:docname="tap_tap_rainbow_box.svg"
   inkscape:version="1.0 (4035a4fb49, 2020-05-01)"
   id="svg8"
   version="1.1"
   viewBox="0 0 297 210"
   height="210mm"
   width="297mm">
  <defs
     id="defs2" />
  <sodipodi:namedview
     inkscape:window-maximized="0"
     inkscape:window-y="7"
     inkscape:window-x="884"
     inkscape:window-height="1198"
     inkscape:window-width="2304"
     showgrid="false"
     inkscape:document-rotation="0"
     inkscape:current-layer="layer1"
     inkscape:document-units="mm"
     inkscape:cy="427.83078"
     inkscape:cx="717.12651"
     inkscape:zoom="0.70710678"
     inkscape:pageshadow="2"
     inkscape:pageopacity="0.0"
     borderopacity="1.0"
     bordercolor="#666666"
     pagecolor="#ffffff"
     id="base" />
  <metadata
     id="metadata5">
    <rdf:RDF>
      <cc:Work
         rdf:about="">
        <dc:format>image/svg+xml</dc:format>
        <dc:type
           rdf:resource="http://purl.org/dc/dcmitype/StillImage" />
        <dc:title></dc:title>
      </cc:Work>
    </rdf:RDF>
  </metadata>
  <g
     id="layer1"
     inkscape:groupmode="layer"
     inkscape:label="Layer 1">
    <path
       sodipodi:nodetypes="ccccccccccc"
       d="M 47.259393,2.3569468 3.647628,35.695468 30.259393,70.356948 v 0 21.049328 H 123.7594 v -21.049328 0 L 150.35089,35.695468 106.83365,2.3569468 Z"
       style="fill:none;stroke:#ff0000;stroke-width:0.1;stroke-linecap:round;stroke-miterlimit:4;stroke-dasharray:none"
       id="rect841" />
    <path
       transform="scale(0.26458333)"
       d="M 102.83594 376.16992 L 102.83594 599.67188 L 983.89258 599.67188 L 983.89258 376.16992 L 102.83594 376.16992 z M 146.62891 440.79297 L 940.09766 440.79297 L 940.09766 535.04883 L 146.62891 535.04883 L 146.62891 440.79297 z "
       style="fill:none;stroke:#ff0000;stroke-width:0.377953;stroke-linecap:round;stroke-miterlimit:4;stroke-dasharray:none;fill-opacity:1"
       id="rect839" />
    <use
       height="100%"
       width="100%"
       transform="matrix(1,0,0,-1,133.27133,97.531587)"
       x="0"
       y="0"
       xlink:href="#rect841"
       id="use853" />
  </g>
</svg>
